<?xml version="1.0" encoding="UTF-8"?>
<session version="1.0">
<refactoring accessors="true" comment="Delete 2 elements from project &apos;Browser&apos;&#x0A;- Original project: &apos;Browser&apos;&#x0A;- Original elements:&#x0A;     MiniBrowserDiagram.png&#x0A;     MiniBrowserDiagram.ucls" description="Delete elements" element1="src/Browser/MiniBrowserDiagram.png" element2="src/Browser/MiniBrowserDiagram.ucls" elements="0" flags="589830" id="org.eclipse.jdt.ui.delete" resources="2" stamp="1504346059248" subPackages="false" version="1.0"/>
</session>